<?xml version="1.0" encoding="utf-8"?>
<!-- Generator: Adobe Illustrator 21.0.2, SVG Export Plug-In . SVG Version: 6.00 Build 0)  -->
<svg version="1.1" id="Layer_1" xmlns="http://www.w3.org/2000/svg" xmlns:xlink="http://www.w3.org/1999/xlink" x="0px" y="0px"
	 viewBox="0 0 386 61.3" style="enable-background:new 0 0 386 61.3;" xml:space="preserve">
<style type="text/css">
	.st0{fill:#AF206F;}
	.st1{fill-rule:evenodd;clip-rule:evenodd;fill:#AF206F;}
</style>
<g>
	<path class="st0" d="M57.2,42.4l-3.7-11.2l-3.8,11.2H57.2z M55.3,25.7c0.5,2.5,1.3,4.9,2.1,7.3l6.5,19.9c0.3,1,0.7,2.3,1.6,2.9
		c0.9,0.6,2,1,3,1.4H57.6c1-0.4,2.1-0.8,2.9-1.4c0.6-0.4,0.6-0.9,0.5-1.5c-0.1-0.6-0.3-1.2-0.5-1.8l-2.5-8H49l-2.6,8
		c-0.2,0.7-0.4,1.3-0.5,2c-0.1,0.6-0.2,1,0.5,1.4c0.9,0.5,1.9,0.8,2.9,1.3h-10c1-0.4,2.2-0.8,3.2-1.4c0.5-0.3,0.7-0.6,0.9-1.1
		c0.2-0.6,0.4-1.1,0.6-1.7c0.3-0.8,0.6-1.6,0.9-2.5l5.4-15.8c0.9-2.9,2.1-6,2.6-9L55.3,25.7z"/>
	<path class="st0" d="M79,46.4c0,2.6-0.2,4.8-0.6,6.4c-1,4-5.5,4.5-8.9,4.4c1.9-0.9,4.2-1.6,5.2-3.7c0.6-1.2,0.8-2.6,0.8-4V29.8
		c0-0.9,0-2.1-0.7-2.5c-0.9-0.7-2.4-1-3.5-1.3l-0.9-0.3h13.8c-1.3,0.5-2.5,0.8-3.8,1.3c-0.8,0.3-1.3,0.8-1.4,1.7c0,0.3,0,0.7,0,1
		V46.4z"/>
	<g>
		<path class="st0" d="M18.8,28.1c-0.5,0.4-0.5,1-0.5,1.6v0.1v0.1v11.5l2,0c2.2,0,4.2-0.6,5.8-1.9c1.6-1.2,2.4-2.9,2.4-4.9
			c0-1.8-0.6-3.5-1.9-4.7c-1.1-1.1-2.4-1.8-3.9-2C21.7,27.6,19.7,27.5,18.8,28.1 M23.5,42.8c2.7,3,5.5,6.1,8.2,9.2
			c1.9,2.1,4.4,5.1,7.4,5.3c-3.4,1.2-6,0.2-8.5-2.2c-1.5-1.5-2.9-3-4.3-4.6c-2.2-2.5-4.6-4.9-6.9-7.4h-1.2v10.1c0,0.5,0,0.9,0.1,1.3
			c0.1,0.8,0.7,1.4,1.4,1.6l4,1.3H9.3c1.2-0.4,2.4-0.6,3.6-1c0.9-0.3,1.5-0.7,1.7-1.5c0.2-0.5,0.1-1.2,0.1-1.7V30.8
			c0-0.6,0-1.2-0.1-1.8c-0.1-0.8-0.7-1.2-1.4-1.6c-1-0.5-2-0.8-3-1.2l-0.9-0.4h7.7c2.7,0,5.2-0.3,7.9,0.2c1.7,0.3,3.3,1.3,4.7,2.7
			c1.4,1.4,2.2,3.4,2.2,5.9c0,1.9-0.5,3.5-1.4,4.6c-1,1.1-2,1.9-3.1,2.5C26.1,42.2,24.8,42.7,23.5,42.8"/>
		<path class="st1" d="M25.8,22.5c-0.1,0.5-0.1,1.1-0.2,1.7h-8.1h0h-8c-0.1-0.6-0.1-1.1-0.2-1.7h8.2h0H25.8z M16.2,7.7l0.5,0.9
			l0.6-0.9H16.2z M17.7,7.7l0.6,0.9l0.6-0.9H17.7z M17.5,7.8l0.6,0.9h-1.2L17.5,7.8z M16.6,8.7L16,7.8l-0.6,0.9H16.6z M18.4,8.8
			l0.6-1l0.6,1L18.4,8.8z M16.9,8.9l1.3,0l-0.6,2.4L16.9,8.9z M15.5,8.9h1.2c0,0,0.8,2.4,0.8,2.4C17.4,11.3,15.5,8.9,15.5,8.9
			 M18.4,8.9h1.2l-2,2.4L18.4,8.9z M17.5,3.8L17.5,3.8L17.5,3.8l-4.4,5.7l2,4.5l-2.3,4.8c0,0-3.4-6.8-10.1-7.3c0,0,4.7,0.7,6.4,10.3
			h8.4h0h8.4v0c1.7-9.6,6.4-10.3,6.4-10.3c-6.7,0.5-10.1,7.3-10.1,7.3L19.9,14l2-4.5L17.5,3.8L17.5,3.8z"/>
	</g>
	<path class="st0" d="M109.4,33.1v18.1c0.1,1.7,0.2,2.7,0.3,2.9c0.3,0.5,1,1,2.3,1.3c1.3,0.3,2.8,0.5,4.5,0.5c3.9,0,7.1-1.3,9.4-3.9
		c2.3-2.6,3.5-6.1,3.5-10.5c0-4.3-1.3-7.8-3.8-10.6c-2.6-2.7-5.9-4.1-10-4.1c-1.4,0-2.6,0.1-3.7,0.4c-1.1,0.3-1.7,0.6-2,0.9
		c-0.1,0.2-0.3,1.4-0.3,3.6C109.4,32.2,109.4,32.7,109.4,33.1 M113.2,25.8c1.1-0.1,2.1-0.1,3-0.1c2.5,0,4.6,0.2,6.4,0.7
		c1.8,0.5,3.5,1.3,5,2.4c2.2,1.6,3.8,3.5,5,5.7c1.2,2.2,1.7,4.7,1.7,7.3c0,4.5-1.7,8.2-5.2,11.2c-3.5,3-7.9,4.5-13.3,4.5
		c-0.6,0-1.3,0-2.2-0.1h-10.7c-0.5,0-0.7,0.1-0.8,0.1c-0.2,0-0.3,0-0.4-0.1h-0.9l0.9-0.3c1.1-0.3,2.6-0.6,3.6-1.3
		c0.6-0.5,0.7-1.7,0.7-2.5V29.9c0-0.9,0-2.1-0.7-2.5c-0.9-0.7-2.4-1-3.6-1.3l-0.9-0.3H113.2z"/>
	<path class="st0" d="M175.6,42.4l-3.7-11.2l-3.8,11.2H175.6z M173.7,25.7c0.5,2.5,1.3,4.9,2.1,7.3l6.5,19.9c0.3,1,0.7,2.3,1.6,2.9
		c0.9,0.6,2,1,3,1.4H176c1-0.4,2.1-0.8,2.9-1.4c0.6-0.4,0.6-0.9,0.5-1.5c-0.1-0.6-0.3-1.2-0.5-1.8l-2.5-8h-9.1l-2.6,8
		c-0.2,0.7-0.4,1.3-0.5,2c-0.1,0.6-0.2,1,0.5,1.4c0.9,0.5,1.9,0.8,2.9,1.3h-10.1c1-0.4,2.2-0.8,3.2-1.4c0.5-0.3,0.7-0.6,0.9-1.1
		c0.2-0.6,0.4-1.1,0.6-1.7c0.3-0.8,0.6-1.6,0.9-2.5l5.4-15.8c0.9-2.9,2.1-6,2.6-9L173.7,25.7z"/>
	<path class="st0" d="M145.1,29.8c0-0.9,0-2.1-0.7-2.5c-0.9-0.7-2.4-1-3.5-1.3l-0.9-0.3h13.8c-1.3,0.5-2.5,0.8-3.8,1.3
		c-0.8,0.3-1.3,0.8-1.4,1.7c0,0.3,0,0.7,0,1v23.5c0,0.4,0,0.7,0,1c0.1,0.9,0.5,1.4,1.4,1.7c1.3,0.5,2.5,0.7,3.8,1.3h-13.8l0.9-0.3
		c1.1-0.3,2.6-0.6,3.5-1.3c0.6-0.5,0.7-1.7,0.7-2.5V29.8"/>
	<path class="st0" d="M328.8,33.1v18.1c0.1,1.7,0.2,2.7,0.3,2.9c0.2,0.5,1,1,2.3,1.3c1.3,0.3,2.8,0.5,4.5,0.5c3.9,0,7.1-1.3,9.4-3.9
		c2.3-2.6,3.5-6.1,3.5-10.5c0-4.3-1.3-7.8-3.8-10.6c-2.6-2.7-5.9-4.1-10-4.1c-1.4,0-2.6,0.1-3.7,0.4c-1.1,0.3-1.7,0.6-2,0.9
		c-0.1,0.2-0.2,1.4-0.3,3.6C328.8,32.2,328.8,32.7,328.8,33.1 M332.6,25.8c1.1-0.1,2.1-0.1,3-0.1c2.5,0,4.6,0.2,6.4,0.7
		c1.8,0.5,3.5,1.3,5,2.4c2.2,1.6,3.8,3.5,5,5.7c1.2,2.2,1.7,4.7,1.7,7.3c0,4.5-1.7,8.2-5.2,11.2c-3.5,3-7.9,4.5-13.3,4.5
		c-0.6,0-1.3,0-2.2-0.1h-10.7c-0.5,0-0.7,0.1-0.8,0.1c-0.2,0-0.3,0-0.4-0.1h-0.9l0.9-0.3c1.1-0.3,2.6-0.6,3.5-1.3
		c0.6-0.5,0.7-1.7,0.7-2.5V29.9c0-0.9,0-2.1-0.7-2.5c-0.9-0.7-2.4-1-3.5-1.3l-0.9-0.3H332.6z"/>
	<path class="st0" d="M221.8,30.6L221.8,30.6 M195,28.4c-0.1-0.4-0.3-0.8-0.6-1.1c-0.9-0.7-2.4-1-3.5-1.3l-0.9-0.4h8.5
		c0.9,1.6,1.6,3,2.4,4.6c3.3,7.2,6.7,14.2,10.1,21.4l0.4,0.7l0,0l10.4-21.9c0.8-1.7,1.6-3.2,2.5-4.9h0.7h0h7.7h0h0l0,0
		c-0.2,0.1-0.3,0.1-0.5,0.2l-0.4,0.2l-0.2,0c-0.9,0.3-1.8,0.5-2.7,0.9c-0.4,0.2-0.8,0.4-1,0.7c-0.4,0.6-0.4,1.5-0.4,2.2V37
		c0,5.8,0,11.6,0,17.4c0,0.2,0.1,0.5,0.1,0.7c0.2,0.5,0.6,0.8,1.2,1c1.1,0.4,3,1,3.8,1.3c-4.6,0-9.2,0-13.8,0l0.9-0.3
		c1.1-0.3,2.6-0.6,3.6-1.3c0.6-0.5,0.6-1.7,0.6-2.5V31l-8.9,18.2c-0.2,0.5-0.5,1-0.7,1.5c-1,2.1-1.8,4.2-2.6,6.4c-0.8,0-1.1,0-1.9,0
		c-0.9-2.5-2-4.9-3.1-7.3L197.4,30c-0.1-0.2-0.2-0.5-0.3-0.7l0,9.8l0,15.2c0.1,0.6,0.2,1.1,0.6,1.4c0.9,0.7,2.4,0.9,3.5,1.2l0.9,0.3
		H197h-0.7h-0.5h-0.8H190l0.9-0.3c1.1-0.3,2.6-0.5,3.5-1.2c0.3-0.2,0.4-0.5,0.5-0.9L195,28.4z"/>
	<path class="st0" d="M246.7,52.7c-2.4-2.7-3.9-6.5-3.9-11.1c0-4.6,1.6-8.2,4.3-11.1c5-5.3,11.8-5.3,16.8,0
		c2.7,2.9,4.3,6.5,4.3,11.1c0,4.6-1.5,8.4-3.9,11.1C259.5,58,251.4,58,246.7,52.7 M250.1,25.5c-1.9,0.5-3.6,1.4-5.2,2.5
		c-2.3,1.7-4.1,3.7-5.3,6c-1.2,2.4-1.8,4.9-1.8,7.7c0,4.7,1.8,8.7,5.5,11.8c7,6,17.5,6,24.5,0c3.6-3.1,5.5-7.1,5.5-11.8
		c0-2.7-0.6-5.3-1.8-7.7c-1.2-2.4-3-4.4-5.3-6c-1.6-1.2-3.3-2-5.2-2.5C257.3,24.6,253.6,24.6,250.1,25.5"/>
	<path class="st0" d="M364.3,57c-1.1-0.2-2.7-0.2-3.4,0.8c0,0,0-7.1,0-7.7c0.8,2.3,2.5,4.5,4.7,5.6c1.3,0.6,2.7,0.9,4.3,0.9
		c1.9,0,4.5-0.6,5.8-1.8c1.1-1,1.7-2.4,1.7-4.2c0-2.9-2.4-5.3-7.1-7.3c-1.1-0.5-1.9-0.8-2.4-1.1c-2.3-1.1-4-2.2-5-3.5
		c-1-1.3-1.5-2.8-1.5-4.6c0-2.6,1-4.7,2.9-6.4c2-1.7,4.5-2.5,7.6-2.5c1.7,0,3.4,0.6,5,0.8c1.1,0.2,2.7,0.2,3.4-0.8c0,0,0,7.1,0,7.7
		c-0.8-2.3-2.5-4.5-4.8-5.6c-1.2-0.6-2.7-0.9-4.3-0.9c-1.8,0-3.3,0.6-4.5,1.7c-1.2,1.1-1.8,2.5-1.8,4.2c0,2.8,2.4,5.2,7.1,7.1
		c0.8,0.4,1.4,0.6,1.9,0.8c2.5,1.1,4.4,2.4,5.6,3.9c1.2,1.4,1.7,3.2,1.7,5.1c0,2.5-1,4.6-2.8,6.2C374.2,58.8,369,57.7,364.3,57"/>
	<path class="st0" d="M307.7,57.2L307.7,57.2h0.7h0.4h0.8h5.1l-0.9-0.3c-2.2-0.6-4.1-0.5-4.1-3.4l-0.1-7.6c0-5.8,0-11.6,0.1-17.3
		c0.1-0.6,0.2-1.1,0.6-1.4c0.9-0.7,2.4-0.9,3.5-1.2l0.9-0.3h-5.1h-0.8h-0.4h-0.7h-5.1l0.9,0.3c1.1,0.3,2.6,0.5,3.5,1.2
		c0.4,0.3,0.6,0.9,0.6,1.6l0,24.5l-21.2-27.6l-8.5,0l0.9,0.4c1.1,0.3,2.6,0.6,3.6,1.3c0.6,0.5,0.7,1.7,0.7,2.5v7.1
		c0,5.8,0,11.6-0.1,17.4c-0.1,0.6-0.2,1.1-0.6,1.4c-0.9,0.7-2.5,0.9-3.6,1.2l-0.9,0.3h5.1h0.8h0.4h0.7h5.1l-0.9-0.3
		c-1.1-0.3-2.6-0.5-3.5-1.2c-0.4-0.3-0.6-0.9-0.6-1.6l0-24.9l21.2,28H307.7z"/>
</g>
</svg>
